Exploring remote work from job ads
…
The frequencies do indeed suggest that working from home is afforded occupations that typically require higher education, but it is not a clean cut. Jobs in occupational group 4 are typically office jobs that dont require higher education, and has the second highest share of remote-mentions. Nonetheless, the pattern is clear.

Moving to relative probabilities, 40% of ads that mention remote are for academic occupations with another 25% in jobs that typically require some vocational higher education. But thanks to the high frequency of group 5, close to 15% of advertised positions are in this category.

wfh_extended %>% 
  #filter(statistikk_aar_mnd>'2017') %>% 
  group_by(arbeidssted_fylke) %>% 
  summarize(wfh_prob = 100*mean(wfh), number_of_ads=n(), number_of_mentions=sum(wfh)) %>% 
  ungroup() %>% 
  arrange(desc(number_of_ads)) %>% 
  mutate(relative_prob = wfh_prob/(sum(wfh_prob))) -> fylke_prob

fylke_prob

## # A tibble: 23 x 5
##    arbeidssted_fylke wfh_prob number_of_ads number_of_mentions relative_prob
##    <chr>                <dbl>         <int>              <int>         <dbl>
##  1 Oslo                 0.438        207647                910        0.0739
##  2 Hordaland            0.199        109087                217        0.0335
##  3 Akershus             0.341         98905                337        0.0574
##  4 Rogaland             0.160         92390                148        0.0270
##  5 Mre og Romsdal      0.242         57448                139        0.0408
##  6 Nordland             0.133         56396                 75        0.0224
##  7 Sr-Trndelag        0.281         46904                132        0.0474
##  8 Troms                0.185         44891                 83        0.0312
##  9 Buskerud             0.482         44791                216        0.0813
## 10 stfold              0.313         39895                125        0.0528
## #  with 13 more rows
…
